%YAML 1.1
%TAG !u! tag:unity3d.com,2011:
--- !u!114 &11400000
MonoBehaviour:
  m_ObjectHideFlags: 0
  m_CorrespondingSourceObject: {fileID: 0}
  m_PrefabInstance: {fileID: 0}
  m_PrefabAsset: {fileID: 0}
  m_GameObject: {fileID: 0}
  m_Enabled: 1
  m_EditorHideFlags: 0
  m_Script: {fileID: 11500000, guid: 78b3fd9154634ebdb8c8a48960b9a16a, type: 3}
  m_Name: NPC Dialogue 5
  m_EditorClassIdentifier: 
  NodeLinks:
  - BaseNodeGUID: 79d1265d-cee4-49e4-8b17-52e2eeb8491b
    PortName: Next
    TargetNodeGUID: 1a3cd08a-14a4-4e68-9518-35ac690f5cd7
  DialogueNodeData:
  - NodeGUID: 1a3cd08a-14a4-4e68-9518-35ac690f5cd7
    DialogueText: "\uC6B0\uB9AC \uC560\uB294 \uC804\uAD50 10\uB4F1 \uC548\uC5D0 \uB4E4\uC5C8\uC9C0
      \uBB61\uB2C8\uAE4C! \uD558\uD558\uD558!"
    Position: {x: 248, y: 157.6}
  ExposedProperties: []
  CommentBlockData: []
