%YAML 1.1
%TAG !u! tag:unity3d.com,2011:
--- !u!114 &11400000
MonoBehaviour:
  m_ObjectHideFlags: 0
  m_CorrespondingSourceObject: {fileID: 0}
  m_PrefabInstance: {fileID: 0}
  m_PrefabAsset: {fileID: 0}
  m_GameObject: {fileID: 0}
  m_Enabled: 1
  m_EditorHideFlags: 0
  m_Script: {fileID: 11500000, guid: 78b3fd9154634ebdb8c8a48960b9a16a, type: 3}
  m_Name: NPC Dialogue 3
  m_EditorClassIdentifier: 
  NodeLinks:
  - BaseNodeGUID: a633d480-8cca-4f76-b92a-62ac252dc675
    PortName: Next
    TargetNodeGUID: 61faae58-d193-4801-9adb-2050a0595453
  DialogueNodeData:
  - NodeGUID: 61faae58-d193-4801-9adb-2050a0595453
    DialogueText: "(\uC800\uAC70 \uBC8C\uC368 3\uBC88\uC9F8\uC778\uB370...)"
    Position: {x: 216, y: 197.6}
  ExposedProperties: []
  CommentBlockData: []
