%YAML 1.1
%TAG !u! tag:unity3d.com,2011:
--- !u!114 &11400000
MonoBehaviour:
  m_ObjectHideFlags: 0
  m_CorrespondingSourceObject: {fileID: 0}
  m_PrefabInstance: {fileID: 0}
  m_PrefabAsset: {fileID: 0}
  m_GameObject: {fileID: 0}
  m_Enabled: 1
  m_EditorHideFlags: 0
  m_Script: {fileID: 11500000, guid: 814766dc84a9ad842b6f015a77504b4b, type: 3}
  m_Name: Item Database
  m_EditorClassIdentifier: 
  itemDatas:
  - {fileID: 11400000, guid: 098e9461e17b0d446a38c8b243d970ce, type: 2}
  - {fileID: 11400000, guid: f84a16124e05b1041aa641b30769b11d, type: 2}
  - {fileID: 11400000, guid: 31e6c37e9de8fc04cbdcedde75d868ac, type: 2}
  - {fileID: 11400000, guid: 4852501a5bffae640afbd6681ad2467f, type: 2}
